<svg width="105" height="89" viewBox="0 0 105 89" fill="none" xmlns="http://www.w3.org/2000/svg">
<path fill-rule="evenodd" clip-rule="evenodd" d="M79.5351 7.0068C56.3796 -7.48713 35.0413 5.8012 18.5613 17.6487C4.88766 27.4787 -5.24245 42.5666 5.00306 60.5882C15.0954 78.3405 38.3524 86.1922 58.6353 88.138C78.8188 90.0743 97.9437 85.7691 102.032 69.8967C107.278 49.5349 103.694 22.1288 79.5351 7.0068Z" fill="#F0C419" fill-opacity="0.09"/>
</svg>
